{
    "AWSTemplateFormatVersion": "2010-09-09",
    "Metadata": {},
    "Parameters": {
        "AppSyncApiName": {
            "Type": "String",
            "Description": "The name of the AppSync API",
            "Default": "AppSyncSimpleTransform"
        },
        "DynamoDBModelTableReadIOPS": {
            "Type": "Number",
            "Description": "The number of read IOPS the table should support.",
            "Default": 5
        },
        "DynamoDBModelTableWriteIOPS": {
            "Type": "Number",
            "Description": "The number of write IOPS the table should support.",
            "Default": 5
        },
        "env": {
            "Type": "String",
            "Description": "The environment name. e.g. Dev, Test, or Production",
            "Default": "NONE"
        },
        "ResolverBucket": {
            "Type": "String",
            "Description": "The name of the bucket containing the resolver templates"
        },
        "ResolverRootKey": {
            "Type": "String",
            "Description": "The s3 key of the folder containing the resolver templates in format {Type}.{Field}.[response|request].{Timestamp}"
        },
        "DeploymentTimestamp": {
            "Type": "String",
            "Description": "The timestamp used to identify thie most recent version of the resolver templates in s3."
        },
        "schemaGraphql": {
            "Type": "String",
            "Description": "The S3 location for the Schema: schema.graphql"
        }
    },
    "Resources": {
        "GraphQLSchema": {
            "Type": "AWS::AppSync::GraphQLSchema",
            "Properties": {
                "ApiId": {
                    "Fn::GetAtt": [
                        "GraphQLAPI",
                        "ApiId"
                    ]
                },
                "DefinitionS3Location": {
                    "Ref": "schemaGraphql"
                }
            }
        },
        "GraphQLAPI": {
            "Type": "AWS::AppSync::GraphQLApi",
            "Properties": {
                "Name": {
                    "Fn::If": [
                        "HasEnvironmentParameter",
                        {
                            "Fn::Join": [
                                "-",
                                [
                                    {
                                        "Ref": "AppSyncApiName"
                                    },
                                    {
                                        "Ref": "env"
                                    }
                                ]
                            ]
                        },
                        {
                            "Ref": "AppSyncApiName"
                        }
                    ]
                },
                "AuthenticationType": "API_KEY"
            }
        },
        "GraphQLAPIKey": {
            "Type": "AWS::AppSync::ApiKey",
            "Properties": {
                "ApiId": {
                    "Fn::GetAtt": [
                        "GraphQLAPI",
                        "ApiId"
                    ]
                }
            }
        },
        "TodoTable": {
            "Type": "AWS::DynamoDB::Table",
            "Properties": {
                "TableName": {
                    "Fn::If": [
                        "HasEnvironmentParameter",
                        {
                            "Fn::Join": [
                                "-",
                                [
                                    "Todo",
                                    {
                                        "Fn::GetAtt": [
                                            "GraphQLAPI",
                                            "ApiId"
                                        ]
                                    },
                                    {
                                        "Ref": "env"
                                    }
                                ]
                            ]
                        },
                        {
                            "Fn::Join": [
                                "-",
                                [
                                    "Todo",
                                    {
                                        "Fn::GetAtt": [
                                            "GraphQLAPI",
                                            "ApiId"
                                        ]
                                    }
                                ]
                            ]
                        }
                    ]
                },
                "KeySchema": [
                    {
                        "AttributeName": "id",
                        "KeyType": "HASH"
                    }
                ],
                "AttributeDefinitions": [
                    {
                        "AttributeName": "id",
                        "AttributeType": "S"
                    }
                ],
                "ProvisionedThroughput": {
                    "ReadCapacityUnits": {
                        "Ref": "DynamoDBModelTableReadIOPS"
                    },
                    "WriteCapacityUnits": {
                        "Ref": "DynamoDBModelTableWriteIOPS"
                    }
                },
                "StreamSpecification": {
                    "StreamViewType": "NEW_AND_OLD_IMAGES"
                }
            }
        },
        "TodoIAMRole": {
            "Type": "AWS::IAM::Role",
            "Properties": {
                "RoleName": {
                    "Fn::If": [
                        "HasEnvironmentParameter",
                        {
                            "Fn::Join": [
                                "-",
                                [
                                    "TodoTable",
                                    "role",
                                    {
                                        "Fn::GetAtt": [
                                            "GraphQLAPI",
                                            "ApiId"
                                        ]
                                    },
                                    {
                                        "Ref": "env"
                                    }
                                ]
                            ]
                        },
                        {
                            "Fn::Join": [
                                "-",
                                [
                                    "TodoTable",
                                    "role",
                                    {
                                        "Fn::GetAtt": [
                                            "GraphQLAPI",
                                            "ApiId"
                                        ]
                                    }
                                ]
                            ]
                        }
                    ]
                },
                "AssumeRolePolicyDocument": {
                    "Version": "2012-10-17",
                    "Statement": [
                        {
                            "Effect": "Allow",
                            "Principal": {
                                "Service": "appsync.amazonaws.com"
                            },
                            "Action": "sts:AssumeRole"
                        }
                    ]
                },
                "Policies": [
                    {
                        "PolicyName": "DynamoDBAccess",
                        "PolicyDocument": {
                            "Version": "2012-10-17",
                            "Statement": [
                                {
                                    "Effect": "Allow",
                                    "Action": [
                                        "dynamodb:BatchGetItem",
                                        "dynamodb:BatchWriteItem",
                                        "dynamodb:PutItem",
                                        "dynamodb:DeleteItem",
                                        "dynamodb:GetItem",
                                        "dynamodb:Scan",
                                        "dynamodb:Query",
                                        "dynamodb:UpdateItem"
                                    ],
                                    "Resource": [
                                        {
                                            "Fn::GetAtt": [
                                                "TodoTable",
                                                "Arn"
                                            ]
                                        },
                                        {
                                            "Fn::Join": [
                                                "/",
                                                [
                                                    {
                                                        "Fn::GetAtt": [
                                                            "TodoTable",
                                                            "Arn"
                                                        ]
                                                    },
                                                    "*"
                                                ]
                                            ]
                                        }
                                    ]
                                }
                            ]
                        }
                    }
                ]
            }
        },
        "TodoDataSource": {
            "Type": "AWS::AppSync::DataSource",
            "Properties": {
                "ApiId": {
                    "Fn::GetAtt": [
                        "GraphQLAPI",
                        "ApiId"
                    ]
                },
                "Name": "TodoTable",
                "Type": "AMAZON_DYNAMODB",
                "ServiceRoleArn": {
                    "Fn::GetAtt": [
                        "TodoIAMRole",
                        "Arn"
                    ]
                },
                "DynamoDBConfig": {
                    "AwsRegion": {
                        "Fn::Select": [
                            3,      
                            {
                                "Fn::Split": [
                                    ":",
                                    {
                                        "Fn::GetAtt": [
                                            "TodoTable",
                                            "Arn"
                                        ]
                                    }
                                ]
                            }
                        ]
                    },
                    "TableName": {
                        "Ref": "TodoTable"
                    }
                }
            },
            "DependsOn": [
                "TodoTable",
                "TodoIAMRole"
            ]
        },
        "GetTodoResolver": {
            "Type": "AWS::AppSync::Resolver",
            "Properties": {
                "ApiId": {
                    "Fn::GetAtt": [
                        "GraphQLAPI",
                        "ApiId"
                    ]
                },
                "DataSourceName": {
                    "Fn::GetAtt": [
                        "TodoDataSource",
                        "Name"
                    ]
                },
                "FieldName": "getTodo",
                "TypeName": "Query",
                "RequestMappingTemplateS3Location": {
                    "Fn::Join": [
                        "",
                        [
                            "s3://",
                            {
                                "Fn::Join": [
                                    "/",
                                    [
                                        {
                                            "Ref": "ResolverBucket"
                                        },
                                        {
                                            "Ref": "ResolverRootKey"
                                        },
                                        {
                                            "Fn::Join": [
                                                ".",
                                                [
                                                    "Query",
                                                    "getTodo",
                                                    "request",
                                                    {
                                                        "Ref": "DeploymentTimestamp"
                                                    }
                                                ]
                                            ]
                                        }
                                    ]
                                ]
                            }
                        ]
                    ]
                },
                "ResponseMappingTemplateS3Location": {
                    "Fn::Join": [
                        "",
                        [
                            "s3://",
                            {
                                "Fn::Join": [
                                    "/",
                                    [
                                        {
                                            "Ref": "ResolverBucket"
                                        },
                                        {
                                            "Ref": "ResolverRootKey"
                                        },
                                        {
                                            "Fn::Join": [
                                                ".",
                                                [
                                                    "Query",
                                                    "getTodo",
                                                    "response",
                                                    {
                                                        "Ref": "DeploymentTimestamp"
                                                    }
                                                ]
                                            ]
                                        }
                                    ]
                                ]
                            }
                        ]
                    ]
                }
            },
            "DependsOn": "GraphQLSchema"
        },
        "ListTodoResolver": {
            "Type": "AWS::AppSync::Resolver",
            "Properties": {
                "ApiId": {
                    "Fn::GetAtt": [
                        "GraphQLAPI",
                        "ApiId"
                    ]
                },
                "DataSourceName": {
                    "Fn::GetAtt": [
                        "TodoDataSource",
                        "Name"
                    ]
                },
                "FieldName": "listTodos",
                "TypeName": "Query",
                "RequestMappingTemplateS3Location": {
                    "Fn::Join": [
                        "",
                        [
                            "s3://",
                            {
                                "Fn::Join": [
                                    "/",
                                    [
                                        {
                                            "Ref": "ResolverBucket"
                                        },
                                        {
                                            "Ref": "ResolverRootKey"
                                        },
                                        {
                                            "Fn::Join": [
                                                ".",
                                                [
                                                    "Query",
                                                    "listTodos",
                                                    "request",
                                                    {
                                                        "Ref": "DeploymentTimestamp"
                                                    }
                                                ]
                                            ]
                                        }
                                    ]
                                ]
                            }
                        ]
                    ]
                },
                "ResponseMappingTemplateS3Location": {
                    "Fn::Join": [
                        "",
                        [
                            "s3://",
                            {
                                "Fn::Join": [
                                    "/",
                                    [
                                        {
                                            "Ref": "ResolverBucket"
                                        },
                                        {
                                            "Ref": "ResolverRootKey"
                                        },
                                        {
                                            "Fn::Join": [
                                                ".",
                                                [
                                                    "Query",
                                                    "listTodos",
                                                    "response",
                                                    {
                                                        "Ref": "DeploymentTimestamp"
                                                    }
                                                ]
                                            ]
                                        }
                                    ]
                                ]
                            }
                        ]
                    ]
                }
            },
            "DependsOn": "GraphQLSchema"
        },
        "CreateTodoResolver": {
            "Type": "AWS::AppSync::Resolver",
            "Properties": {
                "ApiId": {
                    "Fn::GetAtt": [
                        "GraphQLAPI",
                        "ApiId"
                    ]
                },
                "DataSourceName": {
                    "Fn::GetAtt": [
                        "TodoDataSource",
                        "Name"
                    ]
                },
                "FieldName": "createTodo",
                "TypeName": "Mutation",
                "RequestMappingTemplateS3Location": {
                    "Fn::Join": [
                        "",
                        [
                            "s3://",
                            {
                                "Fn::Join": [
                                    "/",
                                    [
                                        {
                                            "Ref": "ResolverBucket"
                                        },
                                        {
                                            "Ref": "ResolverRootKey"
                                        },
                                        {
                                            "Fn::Join": [
                                                ".",
                                                [
                                                    "Mutation",
                                                    "createTodo",
                                                    "request",
                                                    {
                                                        "Ref": "DeploymentTimestamp"
                                                    }
                                                ]
                                            ]
                                        }
                                    ]
                                ]
                            }
                        ]
                    ]
                },
                "ResponseMappingTemplateS3Location": {
                    "Fn::Join": [
                        "",
                        [
                            "s3://",
                            {
                                "Fn::Join": [
                                    "/",
                                    [
                                        {
                                            "Ref": "ResolverBucket"
                                        },
                                        {
                                            "Ref": "ResolverRootKey"
                                        },
                                        {
                                            "Fn::Join": [
                                                ".",
                                                [
                                                    "Mutation",
                                                    "createTodo",
                                                    "response",
                                                    {
                                                        "Ref": "DeploymentTimestamp"
                                                    }
                                                ]
                                            ]
                                        }
                                    ]
                                ]
                            }
                        ]
                    ]
                }
            },
            "DependsOn": "GraphQLSchema"
        },
        "UpdateTodoResolver": {
            "Type": "AWS::AppSync::Resolver",
            "Properties": {
                "ApiId": {
                    "Fn::GetAtt": [
                        "GraphQLAPI",
                        "ApiId"
                    ]
                },
                "DataSourceName": {
                    "Fn::GetAtt": [
                        "TodoDataSource",
                        "Name"
                    ]
                },
                "FieldName": "updateTodo",
                "TypeName": "Mutation",
                "RequestMappingTemplateS3Location": {
                    "Fn::Join": [
                        "",
                        [
                            "s3://",
                            {
                                "Fn::Join": [
                                    "/",
                                    [
                                        {
                                            "Ref": "ResolverBucket"
                                        },
                                        {
                                            "Ref": "ResolverRootKey"
                                        },
                                        {
                                            "Fn::Join": [
                                                ".",
                                                [
                                                    "Mutation",
                                                    "updateTodo",
                                                    "request",
                                                    {
                                                        "Ref": "DeploymentTimestamp"
                                                    }
                                                ]
                                            ]
                                        }
                                    ]
                                ]
                            }
                        ]
                    ]
                },
                "ResponseMappingTemplateS3Location": {
                    "Fn::Join": [
                        "",
                        [
                            "s3://",
                            {
                                "Fn::Join": [
                                    "/",
                                    [
                                        {
                                            "Ref": "ResolverBucket"
                                        },
                                        {
                                            "Ref": "ResolverRootKey"
                                        },
                                        {
                                            "Fn::Join": [
                                                ".",
                                                [
                                                    "Mutation",
                                                    "updateTodo",
                                                    "response",
                                                    {
                                                        "Ref": "DeploymentTimestamp"
                                                    }
                                                ]
                                            ]
                                        }
                                    ]
                                ]
                            }
                        ]
                    ]
                }
            },
            "DependsOn": "GraphQLSchema"
        },
        "DeleteTodoResolver": {
            "Type": "AWS::AppSync::Resolver",
            "Properties": {
                "ApiId": {
                    "Fn::GetAtt": [
                        "GraphQLAPI",
                        "ApiId"
                    ]
                },
                "DataSourceName": {
                    "Fn::GetAtt": [
                        "TodoDataSource",
                        "Name"
                    ]
                },
                "FieldName": "deleteTodo",
                "TypeName": "Mutation",
                "RequestMappingTemplateS3Location": {
                    "Fn::Join": [
                        "",
                        [
                            "s3://",
                            {
                                "Fn::Join": [
                                    "/",
                                    [
                                        {
                                            "Ref": "ResolverBucket"
                                        },
                                        {
                                            "Ref": "ResolverRootKey"
                                        },
                                        {
                                            "Fn::Join": [
                                                ".",
                                                [
                                                    "Mutation",
                                                    "deleteTodo",
                                                    "request",
                                                    {
                                                        "Ref": "DeploymentTimestamp"
                                                    }
                                                ]
                                            ]
                                        }
                                    ]
                                ]
                            }
                        ]
                    ]
                },
                "ResponseMappingTemplateS3Location": {
                    "Fn::Join": [
                        "",
                        [
                            "s3://",
                            {
                                "Fn::Join": [
                                    "/",
                                    [
                                        {
                                            "Ref": "ResolverBucket"
                                        },
                                        {
                                            "Ref": "ResolverRootKey"
                                        },
                                        {
                                            "Fn::Join": [
                                                ".",
                                                [
                                                    "Mutation",
                                                    "deleteTodo",
                                                    "response",
                                                    {
                                                        "Ref": "DeploymentTimestamp"
                                                    }
                                                ]
                                            ]
                                        }
                                    ]
                                ]
                            }
                        ]
                    ]
                }
            },
            "DependsOn": "GraphQLSchema"
        }
    },
    "Outputs": {
        "GraphQLAPIIdOutput": {
            "Description": "Your GraphQL API ID.",
            "Value": {
                "Fn::GetAtt": [
                    "GraphQLAPI",
                    "ApiId"
                ]
            },
            "Export": {
                "Name": {
                    "Fn::Join": [
                        ":",
                        [
                            {
                                "Ref": "AWS::StackName"
                            },
                            "GraphQLApiId"
                        ]
                    ]
                }
            }
        },
        "GraphQLAPIEndpointOutput": {
            "Description": "Your GraphQL API endpoint.",
            "Value": {
                "Fn::GetAtt": [
                    "GraphQLAPI",
                    "GraphQLUrl"
                ]
            },
            "Export": {
                "Name": {
                    "Fn::Join": [
                        ":",
                        [
                            {
                                "Ref": "AWS::StackName"
                            },
                            "GraphQLApiEndpoint"
                        ]
                    ]
                }
            }
        },
        "GraphQLAPIKeyOutput": {
            "Description": "Your GraphQL API key. Provide via 'x-api-key' header.",
            "Value": {
                "Fn::GetAtt": [
                    "GraphQLAPIKey",
                    "ApiKey"
                ]
            },
            "Export": {
                "Name": {
                    "Fn::Join": [
                        ":",
                        [
                            {
                                "Ref": "AWS::StackName"
                            },
                            "GraphQLApiKey"
                        ]
                    ]
                }
            }
        }
    },
    "Conditions": {
        "HasEnvironmentParameter": {
            "Fn::Not": [
                {
                    "Fn::Equals": [
                        {
                            "Ref": "env"
                        },
                        "NONE"
                    ]
                }
            ]
        }
    }
}